[
    {"server_command": ["@SERVER@", "--http",
                 "--x509keyfile", "tests/serverX509Key.pem",
                 "--x509certfile", "tests/serverX509Cert.pem",
                 "--debug=4",
                 "--priority=@PRIORITY@",
                 "--port=@PORT@"],
     "environment": {"PYTHONPATH" : "."},
     "tests" : [
         {"name": "test-rsa-sigs-on-certificate-verify.py",
          "arguments" : ["-k", "tests/clientX509Key.pem",
                         "-c", "tests/clientX509Cert.pem"]
         },
         {"name" : "test-certificate-verify.py",
          "arguments" : ["-k", "tests/clientX509Key.pem",
                         "-c", "tests/clientX509Cert.pem"]
          },
         {"name" : "test-certificate-verify-malformed.py",
          "arguments" : ["-k", "tests/clientX509Key.pem",
                         "-c", "tests/clientX509Cert.pem"],
          "comment" : "for some reason tlsfuzzer does require decryption error alert",
          "exp_pass" : false
          },
         {"name" : "test-certificate-verify-malformed-sig.py",
          "arguments" : ["-k", "tests/clientX509Key.pem",
                         "-c", "tests/clientX509Cert.pem"]
          },
         {"name" : "test-certificate-request.py",
          "comment" : "tlsfuzzer doesn't like our set of algorithms",
          "arguments" : ["-k", "tests/clientX509Key.pem",
                         "-c", "tests/clientX509Cert.pem",
                         "-e", "check sigalgs in cert request"]
          },
         {"name": "test-certificate-malformed.py",
          "comment" : "tlsfuzzer doesn't like the alerts we send",
          "arguments" : ["-k", "tests/clientX509Key.pem",
                         "-c", "tests/clientX509Cert.pem",
                         "-e", "fuzz empty certificate - overall 7, certs 4, cert 1",
                         "-e", "fuzz empty certificate - overall 8, certs 5, cert 2"]
	 }
     ]
    }
]
